{"count":10000,"next":"https://www.udemy.com/instructor-api/v1/taught-courses/questions/?course=950390&ordering=recency&page=2&page_size=12&status=unread","previous":null,"results":[{"_class":"question","id":"x01Rf8huwwy5KLjVFWHMID2Fw==","created":"2019-08-09T10:36:02Z","title":"Can you suggest any tutorial or video to understand basics of how CNN is applied to text classification step by step.","body":"<p>Can you suggest any tutorial or video to understand basics of how CNN is applied to text classification step by step.</p>","num_replies":0,"num_follows":1,"num_reply_upvotes":0,"modified":"2019-08-09T10:36:02Z","last_activity":"2019-08-09T10:36:02Z","is_read":false,"course":{"_class":"course","id":"x01JUY15zH9s9_lzjMlyuxG-g==","title":"Machine Learning A-Z™: Hands-On Python & R In Data Science","url":"/machinelearning/"},"is_instructor":false},{"_class":"question","id":"x01DG71J-YJxmCXeEI7wF_Qbw==","created":"2019-08-09T09:48:59Z","title":"At 2:04 what does this note refers to \"if you can't see the full array, just run np.set_printoptions(threshold = np.nan)\"","body":"","num_replies":0,"num_follows":1,"num_reply_upvotes":0,"modified":"2019-08-09T09:48:59Z","last_activity":"2019-08-09T09:48:59Z","is_read":false,"course":{"_class":"course","id":"x01JUY15zH9s9_lzjMlyuxG-g==","title":"Machine Learning A-Z™: Hands-On Python & R In Data Science","url":"/machinelearning/"},"is_instructor":false},{"_class":"question","id":"x01Yx324gCaA2VmKGJZJPMqRQ==","created":"2019-08-09T09:44:30Z","title":"AttributeError","body":"<p>Hi I am getting below error when i am using statsmodels.formula.api</p><p>AttributeError: module 'statsmodels.formula.api' has no attribute 'OLS'</p><p><br></p>","num_replies":0,"num_follows":1,"num_reply_upvotes":0,"modified":"2019-08-09T09:44:30Z","last_activity":"2019-08-09T09:44:30Z","is_read":false,"course":{"_class":"course","id":"x01JUY15zH9s9_lzjMlyuxG-g==","title":"Machine Learning A-Z™: Hands-On Python & R In Data Science","url":"/machinelearning/"},"is_instructor":false},{"_class":"question","id":"x01Lkxni4dP00KktOwBSABZ5A==","created":"2019-08-09T09:32:51Z","title":"This video is a lot unclear. Instructor was not specific, kind of ballpark throwing.","body":"","num_replies":0,"num_follows":1,"num_reply_upvotes":0,"modified":"2019-08-09T09:32:51Z","last_activity":"2019-08-09T09:32:51Z","is_read":false,"course":{"_class":"course","id":"x01JUY15zH9s9_lzjMlyuxG-g==","title":"Machine Learning A-Z™: Hands-On Python & R In Data Science","url":"/machinelearning/"},"is_instructor":false},{"_class":"question","id":"x01wFvrYIn07BFDCEdHptm1qg==","created":"2019-08-09T08:54:04Z","title":"statsmodels.formula.api is not working properly ?","body":"<p>module 'statsmodels.formula.api' has no attribute 'OLS'</p>","num_replies":0,"num_follows":1,"num_reply_upvotes":0,"modified":"2019-08-09T08:54:04Z","last_activity":"2019-08-09T08:54:04Z","is_read":false,"course":{"_class":"course","id":"x01JUY15zH9s9_lzjMlyuxG-g==","title":"Machine Learning A-Z™: Hands-On Python & R In Data Science","url":"/machinelearning/"},"is_instructor":false},{"_class":"question","id":"x01sW2AWMYIv-ZC2odyUdw7wg==","created":"2019-08-09T08:50:20Z","title":"what is \"command I\"","body":"<p>At 3:30 the lecturer says to press \"command I to see the object inspector\". Could you explain me what should I press? What \"command I\" means? </p>","num_replies":0,"num_follows":1,"num_reply_upvotes":0,"modified":"2019-08-09T08:50:20Z","last_activity":"2019-08-09T08:50:20Z","is_read":false,"course":{"_class":"course","id":"x01JUY15zH9s9_lzjMlyuxG-g==","title":"Machine Learning A-Z™: Hands-On Python & R In Data Science","url":"/machinelearning/"},"is_instructor":false},{"_class":"question","id":"x01OKBUDxtD89yU82LieQkXYg==","created":"2019-08-09T08:43:36Z","title":"fit and fit_transform","body":"<p>whats the difference between fit and fit_transform and transform</p>","num_replies":0,"num_follows":1,"num_reply_upvotes":0,"modified":"2019-08-09T08:43:36Z","last_activity":"2019-08-09T08:43:36Z","is_read":false,"course":{"_class":"course","id":"x01JUY15zH9s9_lzjMlyuxG-g==","title":"Machine Learning A-Z™: Hands-On Python & R In Data Science","url":"/machinelearning/"},"is_instructor":false},{"_class":"question","id":"x01qnJiUHkPiWqjYHKQc2aQPA==","created":"2019-08-09T08:29:30Z","title":"How to replace missing values by mode or median in R","body":"<p>dataset$Time_in_Employment = ifelse(is.na(dataset$Time_in_Employment),</p><p>&nbsp; &nbsp; &nbsp; &nbsp; &nbsp; &nbsp; &nbsp; &nbsp; &nbsp; &nbsp; &nbsp; &nbsp; &nbsp; &nbsp; &nbsp; &nbsp; &nbsp; &nbsp; ave(dataset$Time_in_Employment, FUN = function(x) mean(x, na.rm = TRUE)),</p><p>&nbsp; &nbsp; &nbsp; &nbsp; &nbsp; &nbsp; &nbsp; &nbsp; &nbsp; &nbsp; &nbsp;dataset$Time_in_Employment)</p><p><br></p><p>I want to replace the missing values by most frequent or median values but unable to find </p><p>Kindly help and guide</p>","num_replies":0,"num_follows":1,"num_reply_upvotes":0,"modified":"2019-08-09T08:29:30Z","last_activity":"2019-08-09T08:29:30Z","is_read":false,"course":{"_class":"course","id":"x01JUY15zH9s9_lzjMlyuxG-g==","title":"Machine Learning A-Z™: Hands-On Python & R In Data Science","url":"/machinelearning/"},"is_instructor":false},{"_class":"question","id":"x01p8Eghp2OJe1h0Ho7d7fQ0w==","created":"2019-08-09T08:26:56Z","title":"Unable to Install the Anaconda 3.7 version for MAC .","body":"","num_replies":0,"num_follows":1,"num_reply_upvotes":0,"modified":"2019-08-09T08:26:56Z","last_activity":"2019-08-09T08:26:56Z","is_read":false,"course":{"_class":"course","id":"x01JUY15zH9s9_lzjMlyuxG-g==","title":"Machine Learning A-Z™: Hands-On Python & R In Data Science","url":"/machinelearning/"},"is_instructor":false},{"_class":"question","id":"x01sPn7NSx8-chLaUkMfXw67A==","created":"2019-08-09T08:01:16Z","title":"Dataset X (independent) variable","body":"<p>Hi, I am getting syntax error for code: X = dataset.iloc(:, :-1).values</p>","num_replies":0,"num_follows":1,"num_reply_upvotes":0,"modified":"2019-08-09T08:01:16Z","last_activity":"2019-08-09T08:01:16Z","is_read":false,"course":{"_class":"course","id":"x01JUY15zH9s9_lzjMlyuxG-g==","title":"Machine Learning A-Z™: Hands-On Python & R In Data Science","url":"/machinelearning/"},"is_instructor":false},{"_class":"question","id":"x01hyFGxFZpqD-l5SCYPmlBhQ==","created":"2019-08-09T07:52:48Z","title":"I have completed the course. From where do I download my certificate of completion?","body":"","num_replies":0,"num_follows":1,"num_reply_upvotes":0,"modified":"2019-08-09T07:52:48Z","last_activity":"2019-08-09T07:52:48Z","is_read":false,"course":{"_class":"course","id":"x01JUY15zH9s9_lzjMlyuxG-g==","title":"Machine Learning A-Z™: Hands-On Python & R In Data Science","url":"/machinelearning/"},"is_instructor":false},{"_class":"question","id":"x01g6v_nMwA2kjG5Hjb7K8WEw==","created":"2019-08-09T07:33:32Z","title":"regressor","body":"<p>sir , i want to clarify that this optimal equation or model(regressor) works on the gradient descent principle? or something else?</p>","num_replies":0,"num_follows":1,"num_reply_upvotes":0,"modified":"2019-08-09T07:33:32Z","last_activity":"2019-08-09T07:33:32Z","is_read":false,"course":{"_class":"course","id":"x01JUY15zH9s9_lzjMlyuxG-g==","title":"Machine Learning A-Z™: Hands-On Python & R In Data Science","url":"/machinelearning/"},"is_instructor":false}],"aggregations":null}